{
  "general": {
    "serviceName": "$serviceName",
    "serviceUrl": "$serviceUrl",
    "apiUrl": "$apiUrl",

    "db": "/app/config",
    "pidFolder": "./",
    "logFolder": "/app/logs",
    "logLevel": "#logLevel",

    "stats": {
      "interval": 15,
      "pushGatewayUrl": "$pushGatewayUrl"
    }
  },

  "http": {
    "hostName": "{$HOSTNAME}",
    "port": 9096,
    "keepAliveTimeout": 0,
    "maxRequestHeaderSize": 8192,
    "maxRequestSize": 2097152,
    "serverString": "tasks",
    "webSocketPingInterval": 0
  },

  "hmq": {
    "url": "$httpMqUrl"
  }
}
